<?xml version="1.0" encoding="utf-8"?>
<!-- Generator: Adobe Illustrator 16.0.0, SVG Export Plug-In . SVG Version: 6.00 Build 0)  -->
<!DOCTYPE svg PUBLIC "-//W3C//DTD SVG 1.1//EN" "http://www.w3.org/Graphics/SVG/1.1/DTD/svg11.dtd">
<svg version="1.1" id="Layer_1" xmlns="http://www.w3.org/2000/svg" xmlns:xlink="http://www.w3.org/1999/xlink" x="0px" y="0px"
	 width="101.417px" height="85.016px" viewBox="0 0 101.417 85.016" enable-background="new 0 0 101.417 85.016"
	 xml:space="preserve">
<g id="schematic" xmlns:xml="http://www.w3.org/XML/1998/namespace">
	
		<rect id="part_symbol" x="7.628" y="7.2" fill="#FFFFFF" stroke="#000000" stroke-width="0.9002" stroke-linecap="round" width="85.788" height="58.808"/>
	<g id="pins">
		<g>
			
				<line fill="none" stroke="#555555" stroke-width="0.7" stroke-linecap="round" stroke-linejoin="round" x1="51.916" y1="66.008" x2="51.916" y2="73.209"/>
		</g>
		
			<line fill="none" stroke="#555555" stroke-width="0.7" stroke-linecap="round" stroke-linejoin="round" x1="0.428" y1="28.8" x2="7.628" y2="28.8"/>
		
			<line fill="none" stroke="#555555" stroke-width="0.7" stroke-linecap="round" stroke-linejoin="round" x1="0.428" y1="21.6" x2="7.628" y2="21.6"/>
		
			<line fill="none" stroke="#555555" stroke-width="0.7" stroke-linecap="round" stroke-linejoin="round" x1="0.428" y1="43.2" x2="7.628" y2="43.2"/>
		
			<line fill="none" stroke="#555555" stroke-width="0.7" stroke-linecap="round" stroke-linejoin="round" x1="0.428" y1="36" x2="7.628" y2="36"/>
		
			<line fill="none" stroke="#555555" stroke-width="0.7" stroke-linecap="round" stroke-linejoin="round" x1="0.428" y1="50.4" x2="7.628" y2="50.4"/>
		<g>
			
				<line fill="none" stroke="#555555" stroke-width="0.7" stroke-linecap="round" stroke-linejoin="round" x1="51.916" y1="7.201" x2="51.916" y2="0"/>
		</g>
	</g>
	<g id="pin_labels">
		<text transform="matrix(1 0 0 1 47.8198 64.1257)" enable-background="new    "><tspan x="0" y="0" fill="#555555" font-family="'DroidSans'" font-size="4.5">P/Gnd </tspan><tspan x="13.832" y="0" fill="#555555" font-family="'DroidSans'" font-size="2.5">[Power Supply]</tspan></text>
		<text transform="matrix(1 0 0 1 48.2212 12.5359)" enable-background="new    "><tspan x="0" y="0" fill="#555555" font-family="'DroidSans'" font-size="4.5">P/Vcc </tspan><tspan x="12.162" y="0" fill="#555555" font-family="'DroidSans'" font-size="2.5">[Power Supply]</tspan></text>
		<text transform="matrix(1 0 0 1 9.647 23.3513)" fill="#555555" font-family="'DroidSans'" font-size="4.5">Vee</text>
		<text transform="matrix(1 0 0 1 9.647 30.4333)" fill="#555555" font-family="'DroidSans'" font-size="4.5">Gnd</text>
		<text transform="matrix(1 0 0 1 9.647 37.7361)" fill="#555555" font-family="'DroidSans'" font-size="4.5">Signal</text>
		<text transform="matrix(1 0 0 1 9.647 44.9841)" enable-background="new    "><tspan x="0" y="0" fill="#555555" font-family="'DroidSans'" font-size="4.5">M/Vee </tspan><tspan x="14.135" y="0" fill="#555555" font-family="'DroidSans'" font-size="2.5">[Motor Power]</tspan></text>
		<text transform="matrix(1 0 0 1 9.687 52.0671)" enable-background="new    "><tspan x="0" y="0" fill="#555555" font-family="'DroidSans'" font-size="4.5">M/Gnd </tspan><tspan x="15.154" y="0" fill="#555555" font-family="'DroidSans'" font-size="2.5">[Motor Power]</tspan></text>
	</g>
	<text transform="matrix(1 0 0 1 42.9702 21.4187)" font-family="'DroidSans'" font-size="6">Motor </text>
	<text transform="matrix(1 0 0 1 36.8149 28.6189)" font-family="'DroidSans'" font-size="6">Controller</text>
</g>
</svg>
