<?xml version="1.0" encoding="utf-8"?>
<!-- Generator: Adobe Illustrator 16.0.0, SVG Export Plug-In . SVG Version: 6.00 Build 0)  -->
<!DOCTYPE svg PUBLIC "-//W3C//DTD SVG 1.1//EN" "http://www.w3.org/Graphics/SVG/1.1/DTD/svg11.dtd">
<svg version="1.1" id="Layer_1" xmlns="http://www.w3.org/2000/svg" xmlns:xlink="http://www.w3.org/1999/xlink" x="0px" y="0px"
	 width="72px" height="46.8px" viewBox="0 0 72 46.8" enable-background="new 0 0 72 46.8" xml:space="preserve">
<g id="breadboard">
	<g id="icon_1_">
		<g id="_x3C_desc_x3E_">
		</g>
		<path fill="#E72D2F" d="M72,46.8H0V0h72V46.8z M7.2,4.297c-1.597,0-2.891,1.294-2.891,2.891S5.603,10.08,7.2,10.08
			c1.597,0,2.891-1.294,2.891-2.891S8.797,4.297,7.2,4.297z M64.8,4.297c-1.597,0-2.891,1.294-2.891,2.891s1.294,2.891,2.891,2.891
			s2.892-1.294,2.892-2.891S66.396,4.297,64.8,4.297z M59.743,43.201c0,0.805,0.651,1.457,1.456,1.457
			c0.804,0,1.455-0.652,1.455-1.457c0-0.804-0.651-1.455-1.455-1.455C60.395,41.746,59.743,42.397,59.743,43.201z M52.543,43.201
			c0,0.805,0.652,1.457,1.456,1.457s1.456-0.652,1.456-1.457c0-0.804-0.652-1.455-1.456-1.455S52.543,42.397,52.543,43.201z
			 M45.344,43.201c0,0.805,0.652,1.457,1.456,1.457s1.456-0.652,1.456-1.457c0-0.804-0.652-1.455-1.456-1.455
			S45.344,42.397,45.344,43.201z M38.143,43.201c0,0.805,0.652,1.457,1.457,1.457c0.803,0,1.455-0.652,1.455-1.457
			c0-0.804-0.652-1.455-1.455-1.455C38.795,41.746,38.143,42.397,38.143,43.201z M30.944,43.201c0,0.805,0.652,1.457,1.456,1.457
			c0.804,0,1.456-0.652,1.456-1.457c0-0.804-0.652-1.455-1.456-1.455C31.596,41.746,30.944,42.397,30.944,43.201z M23.744,43.201
			c0,0.805,0.652,1.457,1.456,1.457c0.804,0,1.456-0.652,1.456-1.457c0-0.804-0.652-1.455-1.456-1.455
			C24.396,41.746,23.744,42.397,23.744,43.201z M16.543,43.201c0,0.805,0.652,1.457,1.456,1.457s1.456-0.652,1.456-1.457
			c0-0.804-0.652-1.455-1.456-1.455S16.543,42.397,16.543,43.201z M9.343,43.201c0,0.805,0.652,1.457,1.456,1.457
			c0.804,0,1.456-0.652,1.456-1.457c0-0.804-0.652-1.455-1.456-1.455C9.995,41.746,9.343,42.397,9.343,43.201z"/>
		<g id="silkscreen">
			<rect x="2.625" y="22.218" fill="#FFFFFF" width="3.313" height="3.37"/>
			<text id="name" transform="matrix(1 0 0 1 9.52 4.2534)" fill="#FFFFFF" font-family="'OCRA'" font-size="3.2">RC Car Motor Controller</text>
			<text id="text" transform="matrix(1 0 0 1 51.377 18.3179)" fill="#FFFFFF" font-family="'OCRA'" font-size="3.5">M/GND</text>
			<text id="text_10_" transform="matrix(1 0 0 1 8.6992 18.3179)" fill="#FFFFFF" font-family="'OCRA'" font-size="3.5">P/GND</text>
			
				<text id="text_6_" transform="matrix(4.489659e-011 -1 1 4.489659e-011 41.0176 39.272)" fill="#FFFFFF" font-family="'OCRA'" font-size="3.5">SIGNAL</text>
			<text id="text_1_" transform="matrix(1 0 0 1 8.6992 25.2124)" fill="#FFFFFF" font-family="'OCRA'" font-size="3.5">P/VCC</text>
			<g>
				
					<text id="text_3_" transform="matrix(4.489659e-011 -1 1 4.489659e-011 33.8579 39.272)" fill="#FFFFFF" font-family="'OCRA'" font-size="3.5">VEE</text>
			</g>
			<g>
				
					<text id="text_4_" transform="matrix(4.489659e-011 -1 1 4.489659e-011 26.6357 39.272)" fill="#FFFFFF" font-family="'OCRA'" font-size="3.5">GND</text>
			</g>
			<g>
				<g>
					<text id="text_7_" transform="matrix(1 0 0 1 51.377 24.7729)" fill="#FFFFFF" font-family="'OCRA'" font-size="3.5">M/VEE</text>
				</g>
			</g>
			<rect x="2.604" y="15.329" fill="#FFFFFF" width="3.313" height="3.369"/>
			<rect x="66.354" y="15.329" fill="#FFFFFF" width="3.313" height="3.369"/>
			<rect x="66.354" y="21.715" fill="#FFFFFF" width="3.313" height="3.369"/>
		</g>
		<g id="copper1">
			<g>
				<circle id="connector1pad" fill="none" stroke="#9A916C" stroke-width="1.224" cx="4.26" cy="17.014" r="2.052"/>
				
					<rect id="connector9pad" x="2.208" y="14.961" fill="none" stroke="#9A916C" stroke-width="1.224" width="4.104" height="4.104"/>
			</g>
			<circle id="connector8pad" fill="none" stroke="#9A916C" stroke-width="1.224" cx="61.199" cy="43.201" r="2.052"/>
			<circle id="connector7pad" fill="none" stroke="#9A916C" stroke-width="1.224" cx="54" cy="43.201" r="2.052"/>
			<circle id="connector6pad" fill="none" stroke="#9A916C" stroke-width="1.224" cx="46.801" cy="43.201" r="2.052"/>
			<circle id="connector5pad" fill="none" stroke="#9A916C" stroke-width="1.224" cx="39.601" cy="43.201" r="2.052"/>
			<circle id="connector4pad" fill="none" stroke="#9A916C" stroke-width="1.224" cx="32.401" cy="43.201" r="2.052"/>
			<circle id="connector3pad" fill="none" stroke="#9A916C" stroke-width="1.224" cx="25.201" cy="43.201" r="2.052"/>
			<circle id="connector2pad" fill="none" stroke="#9A916C" stroke-width="1.224" cx="4.282" cy="23.903" r="2.052"/>
			<g>
				<circle id="connector1pad_1_" fill="none" stroke="#9A916C" stroke-width="1.224" cx="25.201" cy="43.201" r="2.052"/>
				
					<rect id="connector9pad_1_" x="23.149" y="41.149" fill="none" stroke="#9A916C" stroke-width="1.224" width="4.104" height="4.104"/>
			</g>
			<g>
				<circle id="connector1pad_2_" fill="none" stroke="#9A916C" stroke-width="1.224" cx="68.011" cy="17.014" r="2.052"/>
				
					<rect id="connector9pad_2_" x="65.959" y="14.961" fill="none" stroke="#9A916C" stroke-width="1.224" width="4.104" height="4.104"/>
			</g>
			<circle id="connector5pad_1_" fill="none" stroke="#9A916C" stroke-width="1.224" cx="68.012" cy="23.4" r="2.052"/>
		</g>
	</g>
</g>
<rect x="8.188" y="40.712" fill="#E72D2F" width="11.268" height="5.063"/>
<rect x="43.625" y="39.712" fill="#E72D2F" width="21.625" height="6.375"/>
<circle fill="#FFFFFF" cx="7.156" cy="39.869" r="2.875"/>
<circle fill="#FFFFFF" cx="64.781" cy="7.128" r="2.875"/>
<circle fill="#FFFFFF" cx="7.156" cy="7.128" r="2.875"/>
<circle fill="#FFFFFF" cx="64.781" cy="39.869" r="2.875"/>
</svg>
